src/lsu/lsu_tb.vcd
$date
	Sat Sep 10 00:57:59 2022
$end
$version
	Icarus Verilog
$end
$timescale
	100ps
$end
$scope module lsu_tb $end
$var wire 8 ! fo [7:0] $end
$var wire 8 " q [7:0] $end
$var wire 8 # q3 [7:0] $end
$var wire 8 $ q2 [7:0] $end
$var wire 8 % q1 [7:0] $end
$var reg 16 & a [15:0] $end
$var reg 1 ' clk $end
$var reg 8 ( d [7:0] $end
$var reg 1 ) re $end
$var reg 1 * rst $end
$var reg 1 + sp_d $end
$var reg 1 , sp_en $end
$var reg 1 - sp_we $end
$var reg 1 . we $end
$scope module u $end
$var wire 16 / a [15:0] $end
$var wire 1 ' clk $end
$var wire 8 0 d [7:0] $end
$var wire 8 1 fo [7:0] $end
$var wire 8 2 q [7:0] $end
$var wire 1 ) re $end
$var wire 1 * rst $end
$var wire 1 + sp_d $end
$var wire 1 , sp_en $end
$var wire 1 - sp_we $end
$var wire 1 . we $end
$var wire 16 3 sp_val [15:0] $end
$var wire 8 4 q3 [7:0] $end
$var wire 8 5 q2 [7:0] $end
$var wire 8 6 q1 [7:0] $end
$scope module ram_inst $end
$var wire 16 7 a [15:0] $end
$var wire 1 ' clk $end
$var wire 8 8 d [7:0] $end
$var wire 1 ) re $end
$var wire 1 * rst $end
$var wire 1 . we $end
$var reg 8 9 q [7:0] $end
$scope begin $ivl_for_loop0 $end
$var integer 32 : i [31:0] $end
$upscope $end
$scope begin $ivl_for_loop1 $end
$var integer 32 ; j [31:0] $end
$upscope $end
$upscope $end
$scope module rom_inst $end
$var wire 16 < a [15:0] $end
$var wire 1 ' clk $end
$var wire 1 ) re $end
$var reg 8 = q0 [7:0] $end
$var reg 8 > q1 [7:0] $end
$var reg 8 ? q2 [7:0] $end
$var reg 8 @ q3 [7:0] $end
$scope begin $ivl_for_loop2 $end
$upscope $end
$upscope $end
$scope module sp_inst $end
$var wire 1 ' clk $end
$var wire 1 + d $end
$var wire 1 A en $end
$var wire 1 * rst $end
$var reg 16 B q [15:0] $end
$var reg 15 C sp [14:0] $end
$upscope $end
$upscope $end
$upscope $end
$enddefinitions $end
#0
$dumpvars
b111111111111111 C
bx B
0A
bz @
bz ?
bz >
bz =
b0 <
bx ;
b1000000000000000 :
bz 9
b0 8
b0 7
bz 6
bz 5
bz 4
bx 3
bz 2
bz 1
b0 0
b0 /
0.
0-
0,
0+
0*
0)
b0 (
0'
b0 &
bz %
bz $
bz #
bz "
bz !
$end
#10
b111111111111111 3
b111111111111111 B
1'
#20
0'
#30
1'
#40
0'
#50
b1 #
b1 4
b1 @
b1100000 $
b1100000 5
b1100000 ?
b101 %
b101 6
b101 >
b1011110 "
b1011110 2
b1011110 =
b1000000000000000 7
1'
1)
b1000000000000000 &
b1000000000000000 /
b1000000000000000 <
#60
0'
#70
1'
#80
0'
#90
1'
#100
b10 #
b10 4
b10 @
b1 $
b1 5
b1 ?
b1100000 %
b1100000 6
b1100000 >
b101 "
b101 2
b101 =
b1000000000000001 7
0'
b1000000000000001 &
b1000000000000001 /
b1000000000000001 <
#110
1'
#120
0'
#130
1'
#140
0'
#150
bz #
bz 4
bz @
bz $
bz 5
bz ?
bz %
bz 6
bz >
bz "
bz 2
bz =
1'
0)
#160
0'
#170
1'
#180
0'
#190
1'
#200
b0 7
0'
1.
b1100100 (
b1100100 0
b1100100 8
b0 &
b0 /
b0 <
#210
1'
#220
0'
#230
1'
#240
0'
#250
b1100100 "
b1100100 2
b1100100 9
1'
0.
1)
#260
0'
#270
1'
#280
0'
#290
1'
#300
b110000 "
b110000 2
b110000 9
b11110 7
0'
1.
b110000 (
b110000 0
b110000 8
b11110 &
b11110 /
b11110 <
#310
1'
#320
0'
#330
1'
#340
0'
#350
1'
0.
#360
0'
#370
1'
#380
0'
#390
1'
#400
b1100100 "
b1100100 2
b1100100 9
b0 7
0'
b0 &
b0 /
b0 <
#410
1'
#420
0'
#430
1'
#440
0'
#450
bz "
bz 2
bz 9
b111111111111110 3
b111111111111110 B
b111111111111110 C
1A
b111111111111110 7
1'
1-
1+
1,
0)
#460
0'
#470
b111111111111101 7
b111111111111101 3
b111111111111101 B
b111111111111101 C
1'
#480
0'
#490
b111111111111100 7
b111111111111100 3
b111111111111100 B
b111111111111100 C
1'
#500
0'
#510
b111111111111011 7
b111111111111011 3
b111111111111011 B
b111111111111011 C
1'
#520
0'
#530
b111111111111010 7
b111111111111010 3
b111111111111010 B
b111111111111010 C
1'
#540
0'
#550
b111111111111001 7
b111111111111001 3
b111111111111001 B
b111111111111001 C
1'
#560
0'
#570
b111111111111000 7
b111111111111000 3
b111111111111000 B
b111111111111000 C
1'
#580
0'
#590
b111111111110111 7
b111111111110111 3
b111111111110111 B
b111111111110111 C
1'
#600
0'
0+
#610
b111111111111000 7
b111111111111000 3
b111111111111000 B
b111111111111000 C
1'
#620
0'
#630
b111111111111001 7
b111111111111001 3
b111111111111001 B
b111111111111001 C
1'
#640
0'
#650
b111111111111010 7
b111111111111010 3
b111111111111010 B
b111111111111010 C
1'
#660
0'
#670
b111111111111011 7
b111111111111011 3
b111111111111011 B
b111111111111011 C
1'
#680
0'
#690
b111111111111100 7
b111111111111100 3
b111111111111100 B
b111111111111100 C
1'
#700
b1000000000000000 ;
0'
1*
#710
b111111111111111 7
b111111111111111 3
b111111111111111 B
b111111111111111 C
b1000000000000000 ;
1'
#720
b1000000000000000 ;
0'
#730
b1000000000000000 ;
1'
#740
b1000000000000000 ;
0'
#750
b0 "
b0 2
b0 9
0A
b0 7
1'
0-
0,
1)
0*
