src/lsu/lsu_tb.vcd
$date
	Sun Sep 11 00:45:17 2022
$end
$version
	Icarus Verilog
$end
$timescale
	100ps
$end
$scope module lsu_tb $end
$var wire 8 ! fo [7:0] $end
$var wire 8 " q [7:0] $end
$var wire 16 # spq [15:0] $end
$var wire 8 $ q3 [7:0] $end
$var wire 8 % q2 [7:0] $end
$var wire 8 & q1 [7:0] $end
$var reg 16 ' a [15:0] $end
$var reg 1 ( clk $end
$var reg 8 ) d [7:0] $end
$var reg 1 * re $end
$var reg 1 + rst $end
$var reg 1 , sp_d $end
$var reg 1 - sp_en $end
$var reg 1 . sp_we $end
$var reg 1 / we $end
$scope module u $end
$var wire 16 0 a [15:0] $end
$var wire 1 ( clk $end
$var wire 8 1 d [7:0] $end
$var wire 8 2 fo [7:0] $end
$var wire 8 3 q [7:0] $end
$var wire 1 * re $end
$var wire 1 + rst $end
$var wire 1 , sp_d $end
$var wire 1 - sp_en $end
$var wire 1 . sp_we $end
$var wire 16 4 spq [15:0] $end
$var wire 1 / we $end
$var wire 16 5 sp_val [15:0] $end
$var wire 8 6 q3 [7:0] $end
$var wire 8 7 q2 [7:0] $end
$var wire 8 8 q1 [7:0] $end
$scope module ram_inst $end
$var wire 16 9 a [15:0] $end
$var wire 1 ( clk $end
$var wire 8 : d [7:0] $end
$var wire 1 * re $end
$var wire 1 + rst $end
$var wire 1 / we $end
$var reg 8 ; q [7:0] $end
$scope begin $ivl_for_loop0 $end
$var integer 32 < i [31:0] $end
$upscope $end
$scope begin $ivl_for_loop1 $end
$var integer 32 = j [31:0] $end
$upscope $end
$upscope $end
$scope module rom_inst $end
$var wire 16 > a [15:0] $end
$var wire 1 ( clk $end
$var wire 1 * re $end
$var reg 8 ? q0 [7:0] $end
$var reg 8 @ q1 [7:0] $end
$var reg 8 A q2 [7:0] $end
$var reg 8 B q3 [7:0] $end
$scope begin $ivl_for_loop2 $end
$upscope $end
$upscope $end
$scope module sp_inst $end
$var wire 1 ( clk $end
$var wire 1 , d $end
$var wire 1 C en $end
$var wire 1 + rst $end
$var reg 16 D q [15:0] $end
$var reg 15 E sp [14:0] $end
$upscope $end
$upscope $end
$upscope $end
$enddefinitions $end
#0
$dumpvars
b111111111111111 E
bx D
0C
bz B
bz A
bz @
bz ?
b0 >
bx =
b1000000000000000 <
bz ;
b0 :
b0 9
bz 8
bz 7
bz 6
bx 5
bx 4
bz 3
bz 2
b0 1
b0 0
0/
0.
0-
0,
0+
0*
b0 )
0(
b0 '
bz &
bz %
bz $
bx #
bz "
bz !
$end
#10
b111111111111111 #
b111111111111111 4
b111111111111111 5
b111111111111111 D
1(
#20
0(
#30
1(
#40
0(
#50
b1 $
b1 6
b1 B
b1100000 %
b1100000 7
b1100000 A
b101 &
b101 8
b101 @
b1011110 "
b1011110 3
b1011110 ?
b1000000000000000 9
1(
1*
b1000000000000000 '
b1000000000000000 0
b1000000000000000 >
#60
0(
#70
1(
#80
0(
#90
1(
#100
b10 $
b10 6
b10 B
b1 %
b1 7
b1 A
b1100000 &
b1100000 8
b1100000 @
b101 "
b101 3
b101 ?
b1000000000000001 9
0(
b1000000000000001 '
b1000000000000001 0
b1000000000000001 >
#110
1(
#120
0(
#130
1(
#140
0(
#150
1(
#160
0(
#170
1(
#180
0(
#190
1(
#200
bz $
bz 6
bz B
bz %
bz 7
bz A
bz &
bz 8
bz @
bz ?
b1100100 "
b1100100 3
b1100100 ;
b0 9
0(
1/
b1100100 )
b1100100 1
b1100100 :
b0 '
b0 0
b0 >
#210
1(
#220
0(
#230
1(
#240
0(
#250
1(
0/
#260
0(
#270
1(
#280
0(
#290
1(
#300
b110000 "
b110000 3
b110000 ;
b11110 9
0(
1/
b110000 )
b110000 1
b110000 :
b11110 '
b11110 0
b11110 >
#310
1(
#320
0(
#330
1(
#340
0(
#350
1(
b0 )
b0 1
b0 :
0/
#360
0(
#370
1(
#380
0(
#390
1(
#400
b1100100 "
b1100100 3
b1100100 ;
b0 9
0(
b0 '
b0 0
b0 >
#410
1(
#420
0(
#430
1(
#440
0(
#450
b110000 "
b110000 3
b110000 ;
b11110 9
1(
b11110 '
b11110 0
b11110 >
#460
0(
#470
1(
#480
0(
#490
1(
#500
bz "
bz 3
bz ;
1C
b111111111111111 9
0(
1.
1,
1-
0*
#510
b111111111111110 9
b111111111111110 #
b111111111111110 4
b111111111111110 5
b111111111111110 D
b111111111111110 E
1(
#520
0(
#530
b111111111111101 9
b111111111111101 #
b111111111111101 4
b111111111111101 5
b111111111111101 D
b111111111111101 E
1(
#540
0(
#550
b111111111111100 9
b111111111111100 #
b111111111111100 4
b111111111111100 5
b111111111111100 D
b111111111111100 E
1(
#560
0(
#570
b111111111111011 9
b111111111111011 #
b111111111111011 4
b111111111111011 5
b111111111111011 D
b111111111111011 E
1(
#580
0(
#590
b111111111111010 9
b111111111111010 #
b111111111111010 4
b111111111111010 5
b111111111111010 D
b111111111111010 E
1(
#600
0(
#610
b111111111111001 9
b111111111111001 #
b111111111111001 4
b111111111111001 5
b111111111111001 D
b111111111111001 E
1(
#620
0(
#630
b111111111111000 9
b111111111111000 #
b111111111111000 4
b111111111111000 5
b111111111111000 D
b111111111111000 E
1(
#640
0(
#650
b111111111111001 9
b111111111111001 #
b111111111111001 4
b111111111111001 5
b111111111111001 D
b111111111111001 E
1(
0,
#660
0(
#670
b111111111111010 9
b111111111111010 #
b111111111111010 4
b111111111111010 5
b111111111111010 D
b111111111111010 E
1(
#680
0(
#690
b111111111111011 9
b111111111111011 #
b111111111111011 4
b111111111111011 5
b111111111111011 D
b111111111111011 E
1(
#700
0(
#710
b111111111111100 9
b111111111111100 #
b111111111111100 4
b111111111111100 5
b111111111111100 D
b111111111111100 E
1(
#720
0(
#730
b111111111111101 9
b111111111111101 #
b111111111111101 4
b111111111111101 5
b111111111111101 D
b111111111111101 E
1(
#740
0(
#750
b111111111111111 9
b111111111111111 #
b111111111111111 4
b111111111111111 5
b111111111111111 D
b111111111111111 E
b1000000000000000 =
1(
1+
#760
b1000000000000000 =
0(
#770
b1000000000000000 =
1(
#780
b1000000000000000 =
0(
#790
b1000000000000000 =
1(
#800
b0 "
b0 3
b0 ;
0(
1,
1*
0+
#810
b111111111111110 9
b111111111111110 #
b111111111111110 4
b111111111111110 5
b111111111111110 D
b111111111111110 E
1(
#820
0(
#830
b111111111111101 9
b111111111111101 #
b111111111111101 4
b111111111111101 5
b111111111111101 D
b111111111111101 E
1(
#840
0(
#850
b111111111111100 9
b111111111111100 #
b111111111111100 4
b111111111111100 5
b111111111111100 D
b111111111111100 E
1(
b0 '
b0 0
b0 >
#860
0(
#870
b111111111111011 9
b111111111111011 #
b111111111111011 4
b111111111111011 5
b111111111111011 D
b111111111111011 E
1(
#880
0(
#890
b111111111111010 9
b111111111111010 #
b111111111111010 4
b111111111111010 5
b111111111111010 D
b111111111111010 E
1(
